Hotel A 101 2
Hotel A 102 1
Hotel A 103 2
Hotel A 104 2
Hotel B 101 2
Hotel B 102 2
Hotel C 101 3
Hotel C 102 2
Hotel D 101 3
Hotel E 101 2
Hotel F 101 2
Hotel F 102 1
Hotel G 101 1
Hotel G 102 3
Hotel G 103 3
Hotel G 104 2
Booking 1 Jan 18 5 single 1 double 3 triple 2
Booking 2 Jan 1 5 single 1 triple 1
Booking 3 Jun 6 6 triple 1
Booking 4 Feb 9 6 single 2 triple 1
Booking 5 Mar 24 3 double 1 triple 1
Booking 6 Feb 16 9 double 3
Booking 7 Mar 28 6 single 1 double 1 triple 1
Booking 8 Jun 16 7 single 1 double 1
Booking 9 May 8 10 double 1 triple 2
Booking 10 Mar 12 2 single 1 triple 1
Booking 11 Jun 12 3 single 1 double 1 triple 2
Booking 12 Jan 13 10 double 2 triple 2
Booking 13 Apr 14 4 triple 1
Booking 14 Feb 9 8 single 3 double 3 triple 3
Booking 15 Mar 25 6 triple 1
Booking 16 Mar 14 6 single 1 triple 2
Booking 17 May 18 8 single 1 triple 1
Booking 18 Jan 27 3 single 2 double 1
Booking 19 Mar 14 5 single 2 triple 1
Booking 20 Jan 29 8 single 1
Booking 21 Jun 18 12 single 1 double 1
Booking 22 Jan 13 7 single 3 double 1 triple 1
Change 18 Feb 2 4 double 1 triple 1
Booking 23 Jun 11 7 double 1
Booking 24 Feb 8 10 single 1 double 1
Booking 25 Jun 24 6 single 3
Booking 26 May 1 2 single 1 double 2 triple 2
Booking 27 Jan 31 14 single 2
Booking 28 Feb 7 2 double 1 triple 2
Booking 29 May 6 6 double 1 triple 1
Booking 30 Apr 15 3 single 2 double 1 triple 1
Booking 31 Jun 20 8 single 1 double 1 triple 1
Change 4 Feb 15 4 single 2 double 2 triple 2
Booking 32 Feb 1 6 double 1 triple 1
Booking 33 May 25 6 single 2 double 1 triple 2
Cancel 26
Cancel 2
Booking 34 Jun 29 6 single 3
Change 16 Apr 12 5 single 1
Change 5 Jun 4 4 double 1 triple 3
Booking 35 Apr 10 6 single 2 triple 1
Booking 36 Mar 9 2 single 2 triple 3
Booking 37 Jan 29 7 single 2 triple 2
Booking 38 Jun 26 7 single 1 triple 2
Booking 39 Apr 25 9 single 2 double 1 triple 1
Booking 40 May 31 4 single 1 double 1
Booking 41 Feb 17 8 double 2
Booking 42 May 21 9 single 1 triple 1
Cancel 24
Booking 43 Jun 24 7 single 1
Booking 44 May 22 6 triple 2
Booking 45 Jan 27 6 double 1 triple 1
Cancel 7
Cancel 20
Booking 46 Mar 15 8 single 2 double 3
Booking 47 Jun 20 10 double 3
Booking 48 Jan 16 7 single 1 triple 2
Booking 49 Apr 23 7 single 1
Booking 50 Jun 4 6 single 1 double 1 triple 1
Cancel 34
Booking 51 Apr 5 5 single 2 double 1 triple 1
Booking 52 Jun 10 9 single 1 double 2
Booking 53 Mar 6 6 single 1 double 1 triple 1
Booking 54 Apr 1 6 single 2 triple 1
Change 47 Jun 30 8 single 1 double 1 triple 2
Cancel 33
Booking 55 Feb 28 5 single 2 double 1 triple 1
Booking 56 Feb 14 5 double 1 triple 2
Change 35 Jun 20 4 triple 2
Booking 57 Jan 12 7 single 4 triple 2
Booking 58 Jun 8 9 single 2
Booking 59 Jun 27 6 single 2 double 3 triple 2
Booking 60 Apr 28 10 double 1 triple 3
Booking 61 Feb 16 5 single 1 double 2
Cancel 43
Cancel 16
Booking 62 May 27 9 triple 1
Booking 63 Apr 9 5 single 3 double 3 triple 2
Cancel 11
Cancel 39
Booking 64 Feb 28 6 single 1 double 4 triple 1
Booking 65 May 17 6 double 4
Booking 66 May 22 3 triple 1
Cancel 18
Change 14 Jun 18 5 double 1 triple 1
Booking 67 Jan 8 5 single 1 triple 1
Booking 68 May 30 11 double 1 triple 1
Change 1 Jun 17 8 single 1 triple 2
Booking 69 May 6 7 single 3
Booking 70 Jan 11 3 single 1 triple 1
Booking 71 Apr 5 2 double 1 triple 2
Booking 72 May 5 1 single 2 double 1 triple 1
Booking 73 Jan 10 7 double 1 triple 2
Booking 74 Apr 14 7 double 1 triple 2
Booking 75 Feb 14 6 single 2 double 1 triple 2
Change 67 Jun 5 3 single 2 triple 1
Cancel 13
Cancel 14
Cancel 60
Cancel 9
Print A
Print B
Print C
Print D
Print E
Print F
Print G